%YAML 1.1
%TAG !u! tag:unity3d.com,2011:
--- !u!1045 &1
EditorBuildSettings:
  m_ObjectHideFlags: 0
  serializedVersion: 2
  m_Scenes:
  - enabled: 1
    path: Assets/Scenes/Menu_UI.unity
    guid: 64e2ebf27e7df42228a54c9146b03f78
  - enabled: 1
    path: Assets/Scenes/test.unity
    guid: 6763a266c02baef4c82b4b135e810433
  - enabled: 1
    path: Assets/Scenes/Menu_UI 1.unity
    guid: 9012396faea1b6b4eb3ef456b551545f
  m_configObjects: {}
